…
    ##  5  6  7  8  9 10 11 12 13 14 15 16 17 18 19 20 21 22 23 24 25 26 27 28 29 
    ##  0  0  0  0  0  0  0  0  0  0  0  0  0  0  0  0  0  0  0  0  0  0  0  0  0 
    ## 30 31 32 33 34 35 36 37 38 39 40 41 42 43 44 45 46 47 48 49 50 51 52 53 54 
    ##  0  0  0  0  0  0  0  0  0  0  0  0  0  0  0  0  0  0  0  0  0  0  0  0  0 
    ## 55 56 57 58 59 60 
    ##  0  0  0  0  0  0

``` r
# Choose the bing lexicon
get_sentiments("bing")
```

    ## # A tibble: 6,788 x 2
    ##           word sentiment
    ##          <chr>     <chr>
    ##  1     2-faced  negative
    ##  2     2-faces  negative
    ##  3          a+  positive
    ##  4    abnormal  negative
    ##  5     abolish  negative
    ##  6  abominable  negative
    ##  7  abominably  negative
    ##  8   abominate  negative
    ##  9 abomination  negative
    ## 10       abort  negative
    ## # ... with 6,778 more rows
…
